// Jest Snapshot v1, https://goo.gl/fbAQLP

exports[`should display just the upload form if no files are known yet 1`] = `
<div>
  <form
    onSubmit={[Function]}
  >
    <div
      className="field"
    >
      <div
        className="file is-fullwidth has-name"
      >
        <label
          className="file-label"
        >
          <input
            accept="application/pdf"
            className="file-input"
            name="article"
            onChange={[Function]}
            type="file"
          />
          <span
            className="file-cta"
          >
            <span
              className="file-icon"
            >
              <img
                alt=""
                src={Object {}}
              />
            </span>
            <span
              className="file-label"
            >
              Select a PDF file…
            </span>
          </span>
          <span
            className="file-name"
          />
        </label>
      </div>
    </div>
    <div
      className="field"
    >
      <div
        className="control"
      >
        <label
          className="checkbox"
        >
          <input
            onChange={[Function]}
            type="checkbox"
          />
            I want to make this document public under a 
          <OutboundLink
            eventLabel="cc-license"
            onClick={null}
            rel="license"
            target={null}
            title="View the full terms of the license"
            to="https://creativecommons.org/licenses/by/4.0/"
          >
            CC-BY license
          </OutboundLink>
          , and have the rights to do so.
        </label>
      </div>
    </div>
    <div
      className="field is-grouped is-grouped-right"
    >
      <div
        className="control"
      >
        <button
          className="button is-link "
          disabled={true}
          type="submit"
        >
          Upload
        </button>
      </div>
    </div>
  </form>
</div>
`;
