// Jest Snapshot v1, https://goo.gl/fbAQLP

exports[`should display a success message when a header image was successfully uploaded 1`] = `
<span>
  Saved! 
  <Link
    replace={false}
    title="Your journal's public page"
    to="/journal/arbitrary_slug"
  >
    Give it a look.
  </Link>
</span>
`;

exports[`should display a success message when the journal details were successfully saved 1`] = `
<span>
  Saved! 
  <Link
    replace={false}
    title="Your journal's public page"
    to="/journal/arbitrary_slug"
  >
    Give it a look.
  </Link>
</span>
`;

exports[`should display the configuration form when the Journal details are loaded 1`] = `
<BareJournalManagementPage
  match={
    Object {
      "params": Object {
        "slug": "arbitrary_slug",
      },
      "url": "https://arbitrary_url",
    }
  }
  onUpdate={[MockFunction]}
>
  <div>
    <section
      className="hero is-medium is-dark"
    >
      <div
        className="hero-body"
      >
        <div
          className="container"
        >
          <h1
            className="title"
          >
            Journal settings
            <PageMetadata
              title="Journal settings"
              url="https://arbitrary_url"
            >
              <HelmetWrapper
                defer={true}
                encodeSpecialCharacters={true}
              >
                <SideEffect(NullComponent)
                  defer={true}
                  encodeSpecialCharacters={true}
                  meta={
                    Array [
                      Object {
                        "content": "https://arbitrary_url",
                        "name": "og:url",
                      },
                      Object {
                        "content": "Journal settings | Flockademic (beta)",
                        "name": "og:title",
                      },
                      Object {
                        "content": "Journal settings | Flockademic (beta)",
                        "name": "twitter:title",
                      },
                      Object {
                        "content": "website",
                        "name": "og:type",
                      },
                      Object {
                        "content": "summary",
                        "name": "twitter:card",
                      },
                      Object {
                        "content": "@Flockademic",
                        "name": "twitter:site",
                      },
                    ]
                  }
                  title="Journal settings | Flockademic (beta)"
                  titleAttributes={Object {}}
                >
                  <NullComponent
                    defer={true}
                    encodeSpecialCharacters={true}
                    meta={
                      Array [
                        Object {
                          "content": "https://arbitrary_url",
                          "name": "og:url",
                        },
                        Object {
                          "content": "Journal settings | Flockademic (beta)",
                          "name": "og:title",
                        },
                        Object {
                          "content": "Journal settings | Flockademic (beta)",
                          "name": "twitter:title",
                        },
                        Object {
                          "content": "website",
                          "name": "og:type",
                        },
                        Object {
                          "content": "summary",
                          "name": "twitter:card",
                        },
                        Object {
                          "content": "@Flockademic",
                          "name": "twitter:site",
                        },
                      ]
                    }
                    title="Journal settings | Flockademic (beta)"
                    titleAttributes={Object {}}
                  />
                </SideEffect(NullComponent)>
              </HelmetWrapper>
            </PageMetadata>
          </h1>
        </div>
      </div>
    </section>
    <div
      className="container"
    >
      <div
        className="columns"
      >
        <div
          className="column"
        >
          <section
            className="section"
          >
            <h3
              className="title is-size-4"
            >
              Journal details
            </h3>
            <form
              className="update-form"
              onSubmit={[Function]}
            >
              <div
                className="field"
              >
                <label
                  className="label"
                  htmlFor="periodicalName"
                >
                  Journal title
                </label>
                <div
                  className="control"
                >
                  <input
                    className="input "
                    id="periodicalName"
                    name="name"
                    onBlur={[Function]}
                    onChange={[Function]}
                    placeholder="Journal title"
                    value=""
                  />
                </div>
              </div>
              <div
                className="field"
              >
                <label
                  className="label"
                  htmlFor="periodicalHeadline"
                >
                  Tagline
                </label>
                <div
                  className="control"
                >
                  <input
                    className="input"
                    id="periodicalHeadline"
                    name="headline"
                    onChange={[Function]}
                    placeholder="Tagline"
                    value=""
                  />
                </div>
              </div>
              <div
                className="field"
              >
                <label
                  className="label"
                  htmlFor="periodicalDescription"
                >
                  Description
                </label>
                <div
                  className="control"
                >
                  <textarea
                    className="textarea"
                    id="periodicalDescription"
                    name="description"
                    onChange={[Function]}
                    placeholder="Description"
                    value=""
                  />
                </div>
              </div>
              <div
                className="field is-grouped is-grouped-right"
              >
                <div
                  className="control"
                >
                  <Link
                    className="button is-text"
                    replace={false}
                    to="/journal/arbitrary_slug"
                  >
                    <a
                      className="button is-text"
                      onClick={[Function]}
                    >
                      Cancel
                    </a>
                  </Link>
                </div>
                <div
                  className="control"
                >
                  <button
                    className="button is-link "
                    type="submit"
                  >
                    Save
                  </button>
                </div>
              </div>
            </form>
          </section>
          <section
            className="section"
          >
            <h3
              className="title is-size-4"
            >
              Header image
            </h3>
            <HeaderManager
              onUpload={[Function]}
              periodicalId="arbitrary journal id"
            >
              <div>
                <form
                  onSubmit={[Function]}
                >
                  <div
                    className="field"
                  >
                    <div
                      className="file is-fullwidth has-name"
                    >
                      <label
                        className="file-label"
                      >
                        <input
                          accept="image/png, image/jpeg"
                          className="file-input"
                          name="header"
                          onChange={[Function]}
                          type="file"
                        />
                        <span
                          className="file-cta"
                        >
                          <span
                            className="file-icon"
                          >
                            <img
                              alt=""
                              src={Object {}}
                            />
                          </span>
                          <span
                            className="file-label"
                          >
                            Select an image…
                          </span>
                        </span>
                        <span
                          className="file-name"
                        />
                      </label>
                    </div>
                    <p
                      className="help"
                    >
                      Recommended size: 400×2000 pixels.
                    </p>
                  </div>
                  <div
                    className="field is-grouped is-grouped-right"
                  >
                    <div
                      className="control"
                    >
                      <button
                        className="button is-link "
                        disabled={true}
                        type="submit"
                      >
                        Upload
                      </button>
                    </div>
                  </div>
                </form>
              </div>
            </HeaderManager>
          </section>
        </div>
        <div
          className="column is-one-third-widescreen is-offset-one-fifth-widescreen"
        >
          <aside
            className="section content"
          >
            <form
              className="notification publication-form"
              onSubmit={[Function]}
            >
              <h3
                className="title"
              >
                This journal is not public yet
              </h3>
              <p>
                Only you can view this journal. You can make it public after completing the following steps:
              </p>
              <ul
                className="journalProgress"
              >
                <li
                  className="journalProgress__todo "
                  id="nameTodo"
                >
                  Name your Journal
                </li>
                <li
                  className="journalProgress__todo"
                  id="authenticationTodo"
                >
                  <div>
                    Create account / sign in
                  </div>
                </li>
              </ul>
              <button
                className="button is-primary "
                disabled={true}
                type="submit"
              >
                Make public
              </button>
              <hr />
              <div
                className="content"
              />
            </form>
          </aside>
        </div>
      </div>
    </div>
  </div>
</BareJournalManagementPage>
`;
