// Jest Snapshot v1, https://goo.gl/fbAQLP

exports[`should display the journal details 1`] = `
<div>
  <section
    className="hero is-medium is-light"
  >
    <div
      className="hero-body"
    >
      <div
        className="container"
      >
        <PageMetadata
          description="A list of journals published on Flockademic"
          title="Journals"
          url="https://flockademic.com/journals"
        />
        <h1
          className="title"
        >
          Journals
        </h1>
      </div>
    </div>
  </section>
  <section
    className="section"
  >
    <div
      className="container"
    >
      <Component
        periodicals={
          Array [
            Object {
              "description": "Some description",
              "headline": "Some headline",
              "identifier": "some_slug",
              "name": "Some name",
            },
          ]
        }
      />
    </div>
  </section>
</div>
`;
