// Jest Snapshot v1, https://goo.gl/fbAQLP

exports[`should match the snapshot 1`] = `
<div>
  <section
    className="hero is-warning is-medium"
  >
    <div
      className="hero-body"
    >
      <div
        className="container"
      >
        <h1
          className="title"
        >
          Page not found
          <PageMetadata
            title="Page not found"
            url="https://arbitrary_url"
          />
        </h1>
      </div>
    </div>
  </section>
  <section
    className="section"
  >
    <div
      className="container content"
    >
      <h2>
        Aw shucks, nothing here!
      </h2>
      <p>
        Although there might have been something here at some time, there is nothing special here as we speak.
      </p>
      <p>
        You might want to try 
        <Link
          replace={false}
          to="/"
        >
          the homepage
        </Link>
        .
      </p>
      <blockquote>
        If a page exists but no one is around to see it, is it really there?
      </blockquote>
    </div>
  </section>
</div>
`;
